…
`dplyr` 동사를 순차적으로 적용시킬 경우 지연연산이 적용되어 바로 실행되지 않고,
`collect`를 실행할 경우 한방에 실행된다. 결국 최종 질의문 혹은 `dplyr` 동사들이 완성되면
`collect()`를 사용하여 데이터베이스에서 데이터를 쭉 끌어내서 `tble_df()`을 생성시키는 작업흐름을 갖추게 된다.


``` {r dplyr-sqlite-lazyeval, eval=FALSE}
# 2. dplyr 동사를 순차적으로 적용하여 한방에 실행

select_sql <- dplyr::select(park_sqlite, Agency, Accident, Belts, Geolocation) 
filter_sql <- dplyr::filter(select_sql, Accident=="No" & Belts =="No")
arrange_sql <- dplyr::arrange(filter_sql, Agency)
collect(arrange_sql)

# # A tibble: 7,410 × 5
# Agency Accident Belts                           Geolocation `Personal Injury`
# <chr>    <chr> <chr>                                 <chr>             <chr>
# 1     MCP       No    No (39.1893121333333, -77.1204492666667)               Yes
# 2     MCP       No    No (39.0471816666667, -77.0506783333333)               Yes
# 3     MCP       No    No (39.0471816666667, -77.0506783333333)               Yes
# 4     MCP       No    No (39.0471816666667, -77.0506783333333)               Yes
# 5     MCP       No    No         (39.0184883333333, -77.01448)               Yes
# 6     MCP       No    No                                  <NA>               Yes
# 7     MCP       No    No                                  <NA>               Yes
# 8     MCP       No    No                                  <NA>               Yes
# 9     MCP       No    No (38.9879983333333, -77.0273733333333)               Yes
# 10    MCP       No    No (38.9879983333333, -77.0273733333333)               Yes
# # ... with 7,400 more rows
```
